…
    ##   f2_cent = col_double(),
    ##   tl = col_double(),
    ##   f1_20 = col_double(),
    ##   f1_35 = col_double(),
    ##   f1_50 = col_double(),
    ##   f1_65 = col_double(),
    ##   f1_80 = col_double(),
    ##   f2_20 = col_double(),
    ##   f2_35 = col_double(),
    ##   f2_50 = col_double(),
    ##   f2_65 = col_double(),
    ##   f2_80 = col_double()
    ## )

    ## # A tibble: 36 x 17
    ##    id    item  vowel language f1_cent f2_cent    tl f1_20 f1_35 f1_50 f1_65
    ##    <chr> <chr> <chr> <chr>      <dbl>   <dbl> <dbl> <dbl> <dbl> <dbl> <dbl>
    ##  1 edl   meet  i     en          357.   2157. 1797.  342.  318.  323.  434 
    ##  2 edl   beat  i     en          272.   2668.  256.  254.  295.  282.  252.
    ##  3 edl   feet  i     en          278.   2609.  261.  302.  323.  289.  276.
    ##  4 edl   seat  i     en          305.   2641.  509.  280.  303.  336.  351.
    ##  5 edl   heat  i     en          298.   2651.  340.  285.  284.  297.  314.
    ##  6 edl   fleet a     en          314.   2701.  341.  291.  301.  311.  370.
    ##  7 edl   moss  a     en          689.   1164.  142.  724.  728.  690.  653.
    ##  8 edl   bot   a     en          744.   1136.  189.  750.  756.  758.  730.
    ##  9 edl   foug… a     en          659.   1028.  396.  620.  651.  672.  679.
    ## 10 edl   soug… a     en          726.   1207.  611.  725.  715.  724.  744.
    ## # … with 26 more rows, and 6 more variables: f1_80 <dbl>, f2_20 <dbl>,
    ## #   f2_35 <dbl>, f2_50 <dbl>, f2_65 <dbl>, f2_80 <dbl>
…
get trajectory legth
====================

``` r
# get traj legth for f1
mutate(my_data, traj_length_f1 = (f1_20) + (f1_35) + (f1_50) + (f1_65) + (f1_80))
```

    ## # A tibble: 36 x 18
    ##    id    item  vowel language f1_cent f2_cent    tl f1_20 f1_35 f1_50 f1_65
    ##    <chr> <chr> <chr> <chr>      <dbl>   <dbl> <dbl> <dbl> <dbl> <dbl> <dbl>
    ##  1 edl   meet  i     en          357.   2157. 1797.  342.  318.  323.  434 
    ##  2 edl   beat  i     en          272.   2668.  256.  254.  295.  282.  252.
    ##  3 edl   feet  i     en          278.   2609.  261.  302.  323.  289.  276.
    ##  4 edl   seat  i     en          305.   2641.  509.  280.  303.  336.  351.
    ##  5 edl   heat  i     en          298.   2651.  340.  285.  284.  297.  314.
    ##  6 edl   fleet a     en          314.   2701.  341.  291.  301.  311.  370.
    ##  7 edl   moss  a     en          689.   1164.  142.  724.  728.  690.  653.
    ##  8 edl   bot   a     en          744.   1136.  189.  750.  756.  758.  730.
    ##  9 edl   foug… a     en          659.   1028.  396.  620.  651.  672.  679.
    ## 10 edl   soug… a     en          726.   1207.  611.  725.  715.  724.  744.
    ## # … with 26 more rows, and 7 more variables: f1_80 <dbl>, f2_20 <dbl>,
    ## #   f2_35 <dbl>, f2_50 <dbl>, f2_65 <dbl>, f2_80 <dbl>,
    ## #   traj_length_f1 <dbl>

``` r
# make it an object
traj_length_f1 <- mutate(my_data, traj_length_f1 = (f1_20) + (f1_35) + (f1_50) + (f1_65) + (f1_80))

# get traj legth for f2
mutate(my_data, traj_length_f2 = (f2_20) + (f2_35) + (f2_50) + (f2_65) + (f2_80))
```

    ## # A tibble: 36 x 18
    ##    id    item  vowel language f1_cent f2_cent    tl f1_20 f1_35 f1_50 f1_65
    ##    <chr> <chr> <chr> <chr>      <dbl>   <dbl> <dbl> <dbl> <dbl> <dbl> <dbl>
    ##  1 edl   meet  i     en          357.   2157. 1797.  342.  318.  323.  434 
    ##  2 edl   beat  i     en          272.   2668.  256.  254.  295.  282.  252.
    ##  3 edl   feet  i     en          278.   2609.  261.  302.  323.  289.  276.
    ##  4 edl   seat  i     en          305.   2641.  509.  280.  303.  336.  351.
    ##  5 edl   heat  i     en          298.   2651.  340.  285.  284.  297.  314.
    ##  6 edl   fleet a     en          314.   2701.  341.  291.  301.  311.  370.
    ##  7 edl   moss  a     en          689.   1164.  142.  724.  728.  690.  653.
    ##  8 edl   bot   a     en          744.   1136.  189.  750.  756.  758.  730.
    ##  9 edl   foug… a     en          659.   1028.  396.  620.  651.  672.  679.
    ## 10 edl   soug… a     en          726.   1207.  611.  725.  715.  724.  744.
    ## # … with 26 more rows, and 7 more variables: f1_80 <dbl>, f2_20 <dbl>,
    ## #   f2_35 <dbl>, f2_50 <dbl>, f2_65 <dbl>, f2_80 <dbl>,
    ## #   traj_length_f2 <dbl>
…
